{
	"info": {
		"_postman_id": "1b1732aa-1331-493e-83cc-47a5543ef6e4",
		"name": "StiG Applications API",
		"description": "This API handles the creation, modification, approval, and retrieval of student application forms, examination plans, and consultation hours.",
		"schema": "https://schema.getpostman.com/json/collection/v2.1.0/collection.json",
		"_exporter_id": "34632891"
	},
	"item": [
		{
			"name": "applications",
			"item": [
				{
					"name": "{id}",
					"item": [
						{
							"name": "examination-plans",
							"item": [
								{
									"name": "Create examination plan",
									"event": [
										{
											"listen": "test",
											"script": {
												"exec": [
													"pm.test(\"Body is correct\", function () {\r",
													"    pm.response.to.have.body(\"response_body_string\");\r",
													"});\r",
													"\r",
													"pm.test(\"Successful POST request\", function () {\r",
													"    pm.expect(pm.response.code).to.be.oneOf([201, 202]);\r",
													"});"
												],
												"type": "text/javascript",
												"packages": {}
											}
										},
										{
											"listen": "prerequest",
											"script": {
												"exec": [
													""
												],
												"type": "text/javascript",
												"packages": {}
											}
										}
									],
									"request": {
										"method": "POST",
										"header": [],
										"body": {
											"mode": "raw",
											"raw": "{\r\n\r\n    \"semesterModulesA\": [\r\n         \"String\"\r\n    ],\r\n\r\n    \"semesterModulesB\": [\r\n        \"String\"\r\n    ]\r\n}",
											"options": {
												"raw": {
													"language": "json"
												}
											}
										},
										"url": {
											"raw": "{{baseUrl}}/applications/:application id/examination-plans",
											"host": [
												"{{baseUrl}}"
											],
											"path": [
												"applications",
												":application id",
												"examination-plans"
											],
											"variable": [
												{
													"key": "application id",
													"value": "application id",
													"description": "Integer"
												}
											]
										}
									},
									"response": [
										{
											"name": "Create examination plan",
											"originalRequest": {
												"method": "POST",
												"header": [],
												"body": {
													"mode": "raw",
													"raw": "{\r\n    \r\n}",
													"options": {
														"raw": {
															"language": "json"
														}
													}
												},
												"url": {
													"raw": "{{baseUrl}}/applications/1/examination-plans",
													"host": [
														"{{baseUrl}}"
													],
													"path": [
														"applications",
														"1",
														"examination-plans"
													]
												}
											},
											"_postman_previewlanguage": null,
											"header": null,
											"cookie": [],
											"body": null
										}
									]
								}
							]
						},
						{
							"name": "Retrieve specific application with id",
							"event": [
								{
									"listen": "test",
									"script": {
										"exec": [
											"pm.test(\"Response status code is 400\", function () {",
											"  pm.expect(pm.response.code).to.equal(400);",
											"});",
											"",
											"",
											"pm.test(\"Response has the required fields - timestamp, status, error, and path\", function () {",
											"    const responseData = pm.response.json();",
											"    ",
											"    pm.expect(responseData).to.be.an('object');",
											"    pm.expect(responseData.timestamp).to.exist;",
											"    pm.expect(responseData.status).to.exist;",
											"    pm.expect(responseData.error).to.exist;",
											"    pm.expect(responseData.path).to.exist;",
											"});",
											"",
											"",
											"pm.test(\"Timestamp is in a valid date format\", function () {",
											"  const responseData = pm.response.json();",
											"  ",
											"  pm.expect(responseData).to.be.an('object');",
											"  pm.expect(responseData.timestamp).to.match(/^\\d{4}-\\d{2}-\\d{2}T\\d{2}:\\d{2}:\\d{2}.\\d{3}Z$/, \"Timestamp should be in valid date format\");",
											"});",
											"",
											"",
											"pm.test(\"Error message is not empty\", function () {",
											"  const responseData = pm.response.json();",
											"  ",
											"  pm.expect(responseData.error).to.exist.and.to.not.be.empty;",
											"});",
											"",
											"",
											"pm.test(\"Path is a non-empty string\", function () {",
											"    const responseData = pm.response.json();",
											"",
											"    pm.expect(responseData).to.be.an('object');",
											"    pm.expect(responseData.path).to.be.a('string').and.to.have.lengthOf.at.least(1, \"Path should not be empty\");",
											"});"
										],
										"type": "text/javascript",
										"packages": {}
									}
								}
							],
							"request": {
								"method": "GET",
								"header": [],
								"url": {
									"raw": "{{baseUrl}}/applications?degreeProgram=<String>&stigSemester=<Integer>&applicationID=<Integer>&studentNumber=<Integer>",
									"host": [
										"{{baseUrl}}"
									],
									"path": [
										"applications"
									],
									"query": [
										{
											"key": "degreeProgram",
											"value": "<String>",
											"description": "String -> case insensitive"
										},
										{
											"key": "stigSemester",
											"value": "<Integer>",
											"description": "Integer"
										},
										{
											"key": "applicationID",
											"value": "<Integer>",
											"description": "Integer"
										},
										{
											"key": "studentNumber",
											"value": "<Integer>",
											"description": "Integer"
										}
									]
								}
							},
							"response": [
								{
									"name": "Application details retrieved",
									"originalRequest": {
										"method": "GET",
										"header": [],
										"url": {
											"raw": "{{baseUrl}}/applications?degreeProgram=wKB",
											"host": [
												"{{baseUrl}}"
											],
											"path": [
												"applications"
											],
											"query": [
												{
													"key": "degreeProgram",
													"value": "wKB"
												}
											]
										}
									},
									"status": "OK",
									"code": 200,
									"_postman_previewlanguage": "text",
									"header": [
										{
											"key": "Content-Type",
											"value": "text/plain"
										}
									],
									"cookie": [],
									"body": ""
								}
							]
						},
						{
							"name": "Approve applications",
							"event": [
								{
									"listen": "test",
									"script": {
										"exec": [
											"pm.test(\"Response status code is 405\", function () {",
											"  pm.expect(pm.response.code).to.equal(405);",
											"});",
											"",
											"",
											"pm.test(\"Response has the required fields - timestamp, status, error, and path\", function () {",
											"    const responseData = pm.response.json();",
											"",
											"    pm.expect(responseData).to.be.an('object');",
											"    pm.expect(responseData).to.have.property('timestamp');",
											"    pm.expect(responseData).to.have.property('status');",
											"    pm.expect(responseData).to.have.property('error');",
											"    pm.expect(responseData).to.have.property('path');",
											"});",
											"",
											"",
											"pm.test(\"Timestamp is in a valid date format\", function () {",
											"    const responseData = pm.response.json();",
											"    ",
											"    pm.expect(responseData).to.be.an('object');",
											"    pm.expect(responseData.timestamp).to.match(/^\\d{4}-\\d{2}-\\d{2}T\\d{2}:\\d{2}:\\d{2}.\\d{3}Z$/, \"Timestamp should be in valid date format\");",
											"});",
											"",
											"",
											"pm.test(\"Error message is a non-empty string\", function () {",
											"    const responseData = pm.response.json();",
											"    ",
											"    pm.expect(responseData.error).to.be.a('string').and.to.have.lengthOf.at.least(1, \"Error message should not be empty\");",
											"});",
											"",
											"",
											"pm.test(\"Content-Type header is application/json\", function () {",
											"    pm.expect(pm.response.headers.get(\"Content-Type\")).to.include(\"application/json\");",
											"});"
										],
										"type": "text/javascript"
									}
								}
							],
							"request": {
								"method": "POST",
								"header": [
									{
										"key": "Content-Type",
										"value": "application/json"
									}
								],
								"body": {
									"mode": "raw",
									"raw": "{\n  \"approvedByStudent\": \"<boolean>\",\n  \"approvedByDekan\": \"<boolean>\",\n  \"approvedByCourseCoordinator\": \"<boolean>\"\n}",
									"options": {
										"raw": {
											"language": "json"
										}
									}
								},
								"url": {
									"raw": "{{baseUrl}}/applications/:id",
									"host": [
										"{{baseUrl}}"
									],
									"path": [
										"applications",
										":id"
									],
									"variable": [
										{
											"key": "id",
											"value": ""
										}
									]
								}
							},
							"response": [
								{
									"name": "Application approved",
									"originalRequest": {
										"method": "POST",
										"header": [],
										"body": {
											"mode": "raw",
											"raw": "{\n  \"approvedByStudent\": \"<string>\",\n  \"approvedByDekan\": \"<string>\",\n  \"approvedByCourseCoordinator\": \"<string>\"\n}",
											"options": {
												"raw": {
													"language": "json"
												}
											}
										},
										"url": {
											"raw": "{{baseUrl}}/applications/:id",
											"host": [
												"{{baseUrl}}"
											],
											"path": [
												"applications",
												":id"
											],
											"variable": [
												{
													"key": "id",
													"value": "<string>",
													"description": "(Required) "
												}
											]
										}
									},
									"status": "OK",
									"code": 200,
									"_postman_previewlanguage": "text",
									"header": [
										{
											"key": "Content-Type",
											"value": "text/plain"
										}
									],
									"cookie": [],
									"body": ""
								}
							]
						},
						{
							"name": "Update applications",
							"event": [
								{
									"listen": "test",
									"script": {
										"exec": [
											"pm.test(\"Response status code is 400\", function () {",
											"  pm.expect(pm.response.code).to.equal(400);",
											"});",
											"",
											"",
											"pm.test(\"Response has the required fields - timestamp, status, error, and path\", function () {",
											"    const responseData = pm.response.json();",
											"    ",
											"    pm.expect(responseData).to.be.an('object');",
											"    pm.expect(responseData.timestamp).to.exist;",
											"    pm.expect(responseData.status).to.exist;",
											"    pm.expect(responseData.error).to.exist;",
											"    pm.expect(responseData.path).to.exist;",
											"});",
											"",
											"",
											"pm.test(\"Timestamp is in a valid date format\", function () {",
											"  const responseData = pm.response.json();",
											"  ",
											"  pm.expect(responseData).to.be.an('object');",
											"  pm.expect(responseData.timestamp).to.match(/^\\d{4}-\\d{2}-\\d{2}T\\d{2}:\\d{2}:\\d{2}.\\d{3}Z$/);",
											"});",
											"",
											"",
											"pm.test(\"Error message is a non-empty string\", function () {",
											"    const responseData = pm.response.json();",
											"",
											"    pm.expect(responseData.error).to.be.a('string').and.to.have.lengthOf.at.least(1, \"Error message should not be empty\");",
											"});",
											"",
											"",
											"pm.test(\"Content-Type header is application/json\", function () {",
											"    pm.expect(pm.response.headers.get(\"Content-Type\")).to.include(\"application/json\");",
											"});"
										],
										"type": "text/javascript"
									}
								}
							],
							"request": {
								"method": "PUT",
								"header": [
									{
										"key": "Content-Type",
										"value": "application/json"
									}
								],
								"body": {
									"mode": "raw",
									"raw": "{\n  \"stig_semester\": \"<string>\",\n  \"semesterA\": \"<string>\",\n  \"semesterB\": \"<string>\"\n}",
									"options": {
										"raw": {
											"language": "json"
										}
									}
								},
								"url": {
									"raw": "{{baseUrl}}/applications/:id",
									"host": [
										"{{baseUrl}}"
									],
									"path": [
										"applications",
										":id"
									],
									"variable": [
										{
											"key": "id",
											"value": "<string>",
											"description": "(Required) "
										}
									]
								}
							},
							"response": [
								{
									"name": "Application updated",
									"originalRequest": {
										"method": "PUT",
										"header": [],
										"body": {
											"mode": "raw",
											"raw": "{\n  \"stig_semester\": \"<string>\",\n  \"semesterA\": \"<string>\",\n  \"semesterB\": \"<string>\"\n}",
											"options": {
												"raw": {
													"language": "json"
												}
											}
										},
										"url": {
											"raw": "{{baseUrl}}/applications/:id",
											"host": [
												"{{baseUrl}}"
											],
											"path": [
												"applications",
												":id"
											],
											"variable": [
												{
													"key": "id",
													"value": "<string>",
													"description": "(Required) "
												}
											]
										}
									},
									"status": "OK",
									"code": 200,
									"_postman_previewlanguage": "text",
									"header": [
										{
											"key": "Content-Type",
											"value": "text/plain"
										}
									],
									"cookie": [],
									"body": ""
								}
							]
						}
					]
				},
				{
					"name": "List all applications",
					"event": [
						{
							"listen": "test",
							"script": {
								"exec": [
									"pm.test(\"Response time is less than 200ms\", function () {\r",
									"    pm.expect(pm.response.responseTime).to.be.below(200);\r",
									"});\r",
									"\r",
									"pm.test(\"Get all applications\", function () {\r",
									"    pm.expect(pm.response.status).to.be.oneOf([\"OK\", \"No Content\"]);\r",
									"});\r",
									"\r",
									"pm.test(\"Response is an array\", function () {\r",
									"    const responseData = pm.response.json();\r",
									"    pm.expect(responseData).to.be.an('Array');\r",
									"});\r",
									""
								],
								"type": "text/javascript",
								"packages": {}
							}
						}
					],
					"request": {
						"method": "GET",
						"header": [],
						"url": {
							"raw": "{{baseUrl}}/applications?studiengang={Studiengang}&stigSemester={Stig Semester}",
							"host": [
								"{{baseUrl}}"
							],
							"path": [
								"applications"
							],
							"query": [
								{
									"key": "studiengang",
									"value": "{Studiengang}",
									"description": "String"
								},
								{
									"key": "stigSemester",
									"value": "{Stig Semester}",
									"description": "2 or 3 "
								}
							]
						},
						"description": "This endpoint makes an HTTP GET request to retrieve a list of applications based on the provided query parameters. The query parameters include \"studiengang\" to specify the course of study and \"stigSemester\" to specify the semester.\n\n### Request\n\n- Query Parameters:\n    - studiengang (string): Specifies the course of study for filtering the applications.\n    - stigSemester (string): Specifies the semester for filtering the applications.\n\n### Response\n\nThe response of this request is a JSON object representing the list of applications. The JSON schema for the response can be documented as per the structure of the returned data."
					},
					"response": [
						{
							"name": "List all applications",
							"originalRequest": {
								"method": "GET",
								"header": [],
								"url": {
									"raw": "{{baseUrl}}/applications",
									"host": [
										"{{baseUrl}}"
									],
									"path": [
										"applications"
									]
								}
							},
							"_postman_previewlanguage": null,
							"header": null,
							"cookie": [],
							"body": null
						}
					]
				},
				{
					"name": "Create application",
					"event": [
						{
							"listen": "test",
							"script": {
								"exec": [
									"pm.test(\"Response time is less than 200ms\", function () {",
									"    pm.expect(pm.response.responseTime).to.be.below(200);",
									"});",
									"",
									"pm.test(\"Check status code\", function () {",
									"    pm.expect(pm.response.status).to.be.oneOf([\"Created\", \"Conflict\"]);",
									"});",
									"",
									"",
									"pm.test(\"Check response text\", function () {",
									"    pm.expect(pm.response.text()).to.exist;",
									"",
									"    pm.expect(pm.response.text()).to.be.oneOf([\"Application successfully created.\", \"No applications found.\"]);",
									"});",
									"",
									"",
									"",
									"",
									"",
									""
								],
								"type": "text/javascript",
								"packages": {}
							}
						}
					],
					"request": {
						"auth": {
							"type": "jwt",
							"jwt": [
								{
									"key": "algorithm",
									"value": "HS256",
									"type": "string"
								},
								{
									"key": "isSecretBase64Encoded",
									"value": false,
									"type": "boolean"
								},
								{
									"key": "payload",
									"value": "{}",
									"type": "string"
								},
								{
									"key": "addTokenTo",
									"value": "header",
									"type": "string"
								},
								{
									"key": "headerPrefix",
									"value": "Bearer",
									"type": "string"
								},
								{
									"key": "queryParamKey",
									"value": "token",
									"type": "string"
								},
								{
									"key": "header",
									"value": "{}",
									"type": "string"
								}
							]
						},
						"method": "POST",
						"header": [
							{
								"key": "Content-Type",
								"value": "application/json"
							}
						],
						"body": {
							"mode": "raw",
							"raw": "[\n\n    {\n   \"surname\": \"String\",\n    \"name\": \"String\",\n    \"studentNumber\": \"Integer\",\n    \"email\": \"String\",\n    \"degreeProgram\": \"String\",\n    \"spo\": \"Integer\",\n     \"application\": {\n        \"stigSemester\": \"Integer\",\n        \"examPlan\":{\n            \"semesterModulesA\": [],\n            \"semesterModulesB\": []\n            }\n        }\n    }\n  \n]",
							"options": {
								"raw": {
									"language": "json"
								}
							}
						},
						"url": {
							"raw": "{{baseUrl}}/application",
							"host": [
								"{{baseUrl}}"
							],
							"path": [
								"application"
							]
						},
						"description": "# Application Submission\n\nThis endpoint allows the submission of a new application.\n\n## Request Body\n\n- `surname` (string, required): The surname of the applicant.\n- `name` (string, required): The name of the applicant.\n- `studentNumber` (number, required): The student number of the applicant.\n- `email` (string, required): The email address of the applicant.\n- `degreeProgram` (string, required): The degree program the applicant is applying for.\n- `spo` (number, required): The spo value for the application.\n- `stigSemester` (number, required): The stig semester value for the application.\n- `examPlan` (object, required): The exam plan for the application.\n    \n\n## Response\n\n- Status: 201 Created\n    \n- Content-Type: text/plain\n- Body: Application successfully created."
					},
					"response": [
						{
							"name": "Create application",
							"originalRequest": {
								"method": "POST",
								"header": [
									{
										"key": "Content-Type",
										"value": "application/json"
									}
								],
								"body": {
									"mode": "raw",
									"raw": "[\n\n    {\n   \"surname\": \"Gündogan\",\n    \"name\": \"Iker\",\n    \"studentNumber\": 766777,\n    \"email\": \"sker@hs-esslingen.de\",\n    \"degreeProgram\": \"SWB\",\n    \"spo\": 7,\n     \"application\": {\n        \"stigSemester\": 2,\n        \"examPlan\":{\n            \"semesterModulesB\": [\"Mathematik 1A\", \"Mathematik 1B\", \"Programmieren\"]\n            }\n        }\n    }\n  \n]",
									"options": {
										"raw": {
											"language": "json"
										}
									}
								},
								"url": {
									"raw": "{{baseUrl}}/application",
									"host": [
										"{{baseUrl}}"
									],
									"path": [
										"application"
									]
								}
							},
							"_postman_previewlanguage": null,
							"header": null,
							"cookie": [],
							"body": null
						}
					]
				}
			]
		},
		{
			"name": "examination-plan-templates",
			"item": [
				{
					"name": "Retrieve examination plan templates",
					"request": {
						"method": "GET",
						"header": [
							{
								"key": "Accept",
								"value": "application/json"
							}
						],
						"url": {
							"raw": "{{baseUrl}}/examination-plan-templates?studiengang={Studiengang}&spo={spo}&semester={semester}",
							"host": [
								"{{baseUrl}}"
							],
							"path": [
								"examination-plan-templates"
							],
							"query": [
								{
									"key": "studiengang",
									"value": "{Studiengang}",
									"description": "String"
								},
								{
									"key": "spo",
									"value": "{spo}",
									"description": "Integer"
								},
								{
									"key": "semester",
									"value": "{semester}",
									"description": "Integer"
								}
							]
						}
					},
					"response": [
						{
							"name": "List of examination plan templates",
							"originalRequest": {
								"method": "GET",
								"header": [
									{
										"key": "Accept",
										"value": "application/json"
									}
								],
								"url": {
									"raw": "{{baseUrl}}/examination-plan-templates?studiengang=SwB&spo=7&semester=2",
									"host": [
										"{{baseUrl}}"
									],
									"path": [
										"examination-plan-templates"
									],
									"query": [
										{
											"key": "studiengang",
											"value": "SwB"
										},
										{
											"key": "spo",
											"value": "7"
										},
										{
											"key": "semester",
											"value": "2"
										}
									]
								}
							},
							"status": "OK",
							"code": 200,
							"_postman_previewlanguage": "json",
							"header": [
								{
									"key": "Content-Type",
									"value": "application/json"
								}
							],
							"cookie": [],
							"body": "[\n  {\n    \"semester\": \"<string>\",\n    \"course\": \"<string>\"\n  },\n  {\n    \"semester\": \"<string>\",\n    \"course\": \"<string>\"\n  }\n]"
						}
					]
				},
				{
					"name": "Create examination plan templates",
					"event": [
						{
							"listen": "test",
							"script": {
								"exec": [
									"pm.test(\"Response status code is 400\", function () {",
									"    pm.expect(pm.response.code).to.equal(400);",
									"});",
									"",
									"",
									"pm.test(\"Response has the required fields - timestamp, status, error, and path\", function () {",
									"    const responseData = pm.response.json();",
									"    ",
									"    pm.expect(responseData).to.be.an('object');",
									"    pm.expect(responseData.timestamp).to.exist;",
									"    pm.expect(responseData.status).to.exist;",
									"    pm.expect(responseData.error).to.exist;",
									"    pm.expect(responseData.path).to.exist;",
									"});",
									"",
									"",
									"pm.test(\"Timestamp is in a valid date format\", function () {",
									"    const responseData = pm.response.json();",
									"    ",
									"    pm.expect(responseData.timestamp).to.match(/^\\d{4}-\\d{2}-\\d{2}T\\d{2}:\\d{2}:\\d{2}.\\d{3}Z$/);",
									"});",
									"",
									"",
									"pm.test(\"Error message is not empty\", function () {",
									"  const responseData = pm.response.json();",
									"",
									"  pm.expect(responseData.error).to.exist.and.to.not.be.empty;",
									"});",
									"",
									"",
									"pm.test(\"Content-Type is application/json\", function () {",
									"    pm.expect(pm.response.headers.get(\"Content-Type\")).to.include(\"application/json\");",
									"});"
								],
								"type": "text/javascript"
							}
						}
					],
					"request": {
						"method": "POST",
						"header": [
							{
								"key": "Content-Type",
								"value": "application/json"
							}
						],
						"body": {
							"mode": "raw",
							"raw": "{\n  \"semester\": \"<string>\",\n  \"course\": \"<string>\"\n}",
							"options": {
								"raw": {
									"language": "json"
								}
							}
						},
						"url": {
							"raw": "{{baseUrl}}/examination-plan-templates",
							"host": [
								"{{baseUrl}}"
							],
							"path": [
								"examination-plan-templates"
							]
						}
					},
					"response": [
						{
							"name": "Examination plan template created",
							"originalRequest": {
								"method": "POST",
								"header": [],
								"body": {
									"mode": "raw",
									"raw": "{\n  \"semester\": \"<string>\",\n  \"course\": \"<string>\"\n}",
									"options": {
										"raw": {
											"language": "json"
										}
									}
								},
								"url": {
									"raw": "{{baseUrl}}/examination-plan-templates",
									"host": [
										"{{baseUrl}}"
									],
									"path": [
										"examination-plan-templates"
									]
								}
							},
							"status": "Created",
							"code": 201,
							"_postman_previewlanguage": "text",
							"header": [
								{
									"key": "Content-Type",
									"value": "text/plain"
								}
							],
							"cookie": [],
							"body": ""
						}
					]
				},
				{
					"name": "Modify examination plan templates",
					"request": {
						"method": "PUT",
						"header": [
							{
								"key": "Content-Type",
								"value": "application/json"
							}
						],
						"body": {
							"mode": "raw",
							"raw": "{\n    \"semester\": \"\",\n    \"degreeProgram\": \"\",\n    \"modules\": [],\n    \"spo\":\"\"\n}",
							"options": {
								"raw": {
									"language": "json"
								}
							}
						},
						"url": {
							"raw": "{{baseUrl}}/examination-plan-templates/:id",
							"host": [
								"{{baseUrl}}"
							],
							"path": [
								"examination-plan-templates",
								":id"
							],
							"variable": [
								{
									"key": "id",
									"value": ""
								}
							]
						},
						"description": "### Update Examination Plan Template\n\nThis endpoint is used to update an examination plan template by providing the ID of the template to be updated.\n\n#### Request\n\n- Method: PUT\n- URL: `{{baseUrl}}/examination-plan-templates/:id`\n- Body:\n    - `semester` (string, required): The semester for the examination plan template.\n    - `degreeProgram` (string, required): The degree program for the examination plan template.\n    - `modules` (array, required): An array of modules included in the examination plan template.\n    - `spo` (string, required): The SPO (Study Program Outcome) for the examination plan template."
					},
					"response": [
						{
							"name": "Examination plan template modified",
							"originalRequest": {
								"method": "PUT",
								"header": [],
								"body": {
									"mode": "raw",
									"raw": "{\n  \"semester\": \"<string>\",\n  \"course\": \"<string>\"\n}",
									"options": {
										"raw": {
											"language": "json"
										}
									}
								},
								"url": {
									"raw": "{{baseUrl}}/examination-plan-templates?id=<string>",
									"host": [
										"{{baseUrl}}"
									],
									"path": [
										"examination-plan-templates"
									],
									"query": [
										{
											"key": "id",
											"value": "<string>"
										}
									]
								}
							},
							"status": "OK",
							"code": 200,
							"_postman_previewlanguage": "text",
							"header": [
								{
									"key": "Content-Type",
									"value": "text/plain"
								}
							],
							"cookie": [],
							"body": ""
						}
					]
				}
			]
		},
		{
			"name": "degree-program-coordinators",
			"item": [
				{
					"name": "{id}",
					"item": [
						{
							"name": "Modify entity for course coordinators",
							"event": [
								{
									"listen": "test",
									"script": {
										"exec": [
											"pm.test(\"Response status code is 400\", function () {",
											"  pm.expect(pm.response.code).to.equal(400);",
											"});",
											"",
											"",
											"pm.test(\"Response has the required fields\", function () {",
											"    const responseData = pm.response.json();",
											"",
											"    pm.expect(responseData).to.be.an('object');",
											"    pm.expect(responseData.timestamp).to.exist;",
											"    pm.expect(responseData.status).to.exist;",
											"    pm.expect(responseData.error).to.exist;",
											"    pm.expect(responseData.path).to.exist;",
											"});",
											"",
											"",
											"pm.test(\"Timestamp is in a valid date format\", function () {",
											"    const responseData = pm.response.json();",
											"    ",
											"    pm.expect(responseData.timestamp).to.match(/^\\d{4}-\\d{2}-\\d{2}T\\d{2}:\\d{2}:\\d{2}.\\d{3}Z$/, \"Timestamp should be in valid date format\");",
											"});",
											"",
											"",
											"pm.test(\"Error message is not empty\", function () {",
											"  const responseData = pm.response.json();",
											"  ",
											"  pm.expect(responseData.error).to.exist.and.to.not.be.empty;",
											"});",
											"",
											"",
											"pm.test(\"Path is a non-empty string\", function () {",
											"  const responseData = pm.response.json();",
											"  ",
											"  pm.expect(responseData).to.be.an('object');",
											"  pm.expect(responseData.path).to.be.a('string').and.to.have.lengthOf.at.least(1, \"Path should not be empty\");",
											"});"
										],
										"type": "text/javascript"
									}
								}
							],
							"request": {
								"method": "PUT",
								"header": [
									{
										"key": "Content-Type",
										"value": "application/json"
									}
								],
								"body": {
									"mode": "raw",
									"raw": "{\n  \"course\": \"<string>\",\n  \"email\": \"<string>\",\n  \"faculty\": \"<string>\"\n}",
									"options": {
										"raw": {
											"language": "json"
										}
									}
								},
								"url": {
									"raw": "{{baseUrl}}/degree-program-coordinators/:id",
									"host": [
										"{{baseUrl}}"
									],
									"path": [
										"degree-program-coordinators",
										":id"
									],
									"variable": [
										{
											"key": "id",
											"value": "<string>",
											"description": "(Required) "
										}
									]
								}
							},
							"response": [
								{
									"name": "Course coordinator modified",
									"originalRequest": {
										"method": "PUT",
										"header": [],
										"body": {
											"mode": "raw",
											"raw": "{\n  \"course\": \"<string>\",\n  \"email\": \"<string>\",\n  \"faculty\": \"<string>\"\n}",
											"options": {
												"raw": {
													"language": "json"
												}
											}
										},
										"url": {
											"raw": "{{baseUrl}}/degree-program-coordinators/:id",
											"host": [
												"{{baseUrl}}"
											],
											"path": [
												"degree-program-coordinators",
												":id"
											],
											"variable": [
												{
													"key": "id",
													"value": "<string>",
													"description": "(Required) "
												}
											]
										}
									},
									"status": "OK",
									"code": 200,
									"_postman_previewlanguage": "text",
									"header": [
										{
											"key": "Content-Type",
											"value": "text/plain"
										}
									],
									"cookie": [],
									"body": ""
								}
							]
						},
						{
							"name": "Delete entity for course coordinators",
							"request": {
								"method": "DELETE",
								"header": [],
								"url": {
									"raw": "{{baseUrl}}/degree-program-coordinators/1",
									"host": [
										"{{baseUrl}}"
									],
									"path": [
										"degree-program-coordinators",
										"1"
									]
								}
							},
							"response": [
								{
									"name": "Course coordinator deleted",
									"originalRequest": {
										"method": "DELETE",
										"header": [],
										"url": {
											"raw": "{{baseUrl}}/degree-program-coordinators/:id",
											"host": [
												"{{baseUrl}}"
											],
											"path": [
												"degree-program-coordinators",
												":id"
											],
											"variable": [
												{
													"key": "id",
													"value": "<string>",
													"description": "(Required) "
												}
											]
										}
									},
									"status": "No Content",
									"code": 204,
									"_postman_previewlanguage": "text",
									"header": [
										{
											"key": "Content-Type",
											"value": "text/plain"
										}
									],
									"cookie": [],
									"body": ""
								}
							]
						}
					]
				},
				{
					"name": "Create entity for course coordinators",
					"event": [
						{
							"listen": "test",
							"script": {
								"exec": [
									"pm.test(\"Response status code is 400\", function () {",
									"  pm.expect(pm.response.code).to.equal(400);",
									"});",
									"",
									"",
									"pm.test(\"Response has the required fields - timestamp, status, error, and path\", function () {",
									"    const responseData = pm.response.json();",
									"    ",
									"    pm.expect(responseData).to.be.an('object');",
									"    pm.expect(responseData.timestamp).to.exist;",
									"    pm.expect(responseData.status).to.exist;",
									"    pm.expect(responseData.error).to.exist;",
									"    pm.expect(responseData.path).to.exist;",
									"});",
									"",
									"",
									"pm.test(\"Timestamp is in a valid date format\", function () {",
									"    const responseData = pm.response.json();",
									"    ",
									"    pm.expect(responseData).to.be.an('object');",
									"    pm.expect(responseData.timestamp).to.match(/^\\d{4}-\\d{2}-\\d{2}T\\d{2}:\\d{2}:\\d{2}.\\d{3}Z$/);",
									"});",
									"",
									"",
									"pm.test(\"Error message is not empty\", function () {",
									"  const responseData = pm.response.json();",
									"  ",
									"  pm.expect(responseData.error).to.exist.and.to.not.be.empty;",
									"});",
									"",
									"",
									"pm.test(\"Path should not be empty\", function () {",
									"  const responseData = pm.response.json();",
									"  ",
									"  pm.expect(responseData).to.be.an('object');",
									"  pm.expect(responseData.path).to.exist.and.to.have.lengthOf.at.least(1, \"Path should not be empty\");",
									"});"
								],
								"type": "text/javascript"
							}
						}
					],
					"request": {
						"method": "POST",
						"header": [
							{
								"key": "Content-Type",
								"value": "application/json"
							}
						],
						"body": {
							"mode": "raw",
							"raw": "{\n  \"course\": \"<string>\",\n  \"surname\": \"<string>\",\n  \"name\": \"<string>\",\n  \"title\": \"<string>\",\n  \"email\": \"<string>\",\n  \"faculty\": \"<string>\"\n}",
							"options": {
								"raw": {
									"language": "json"
								}
							}
						},
						"url": {
							"raw": "{{baseUrl}}/degree-program-coordinators",
							"host": [
								"{{baseUrl}}"
							],
							"path": [
								"degree-program-coordinators"
							]
						}
					},
					"response": [
						{
							"name": "Course coordinator created",
							"originalRequest": {
								"method": "POST",
								"header": [],
								"body": {
									"mode": "raw",
									"raw": "{\n  \"course\": \"<string>\",\n  \"surname\": \"<string>\",\n  \"name\": \"<string>\",\n  \"title\": \"<string>\",\n  \"email\": \"<string>\",\n  \"faculty\": \"<string>\"\n}",
									"options": {
										"raw": {
											"language": "json"
										}
									}
								},
								"url": {
									"raw": "{{baseUrl}}/degree-program-coordinators",
									"host": [
										"{{baseUrl}}"
									],
									"path": [
										"degree-program-coordinators"
									]
								}
							},
							"status": "Created",
							"code": 201,
							"_postman_previewlanguage": "text",
							"header": [
								{
									"key": "Content-Type",
									"value": "text/plain"
								}
							],
							"cookie": [],
							"body": ""
						}
					]
				},
				{
					"name": "List course coordinators",
					"request": {
						"method": "GET",
						"header": [],
						"url": {
							"raw": "{{baseUrl}}/degree-program-coordinators",
							"host": [
								"{{baseUrl}}"
							],
							"path": [
								"degree-program-coordinators"
							]
						}
					},
					"response": [
						{
							"name": "List of course coordinators",
							"originalRequest": {
								"method": "GET",
								"header": [],
								"url": {
									"raw": "{{baseUrl}}/degree-program-coordinators",
									"host": [
										"{{baseUrl}}"
									],
									"path": [
										"degree-program-coordinators"
									]
								}
							},
							"status": "OK",
							"code": 200,
							"_postman_previewlanguage": "text",
							"header": [
								{
									"key": "Content-Type",
									"value": "text/plain"
								}
							],
							"cookie": [],
							"body": ""
						}
					]
				}
			]
		}
	],
	"event": [
		{
			"listen": "prerequest",
			"script": {
				"type": "text/javascript",
				"packages": {},
				"exec": [
					""
				]
			}
		},
		{
			"listen": "test",
			"script": {
				"type": "text/javascript",
				"packages": {},
				"exec": [
					""
				]
			}
		}
	],
	"variable": [
		{
			"key": "baseUrl",
			"value": "http://localhost:8080/api-stig-applications",
			"type": "string"
		}
	]
}