<svg width="58" height="71" viewBox="0 0 58 71" fill="none" xmlns="http://www.w3.org/2000/svg">
    <path
        d="M16.9016 45.3433C16.9016 47.346 16.1533 49.2668 14.8212 50.683C13.4891 52.0991 11.6824 52.8947 9.79862 52.8947C7.91479 52.8947 6.10812 52.0991 4.77605 50.683C3.44398 49.2668 2.69563 47.346 2.69563 45.3433C2.69563 43.3405 3.44398 41.4197 4.77605 40.0035C6.10812 38.5874 7.91479 37.7918 9.79862 37.7918C11.6824 37.7918 13.4891 38.5874 14.8212 40.0035C16.1533 41.4197 16.9016 43.3405 16.9016 45.3433ZM19.2693 70.5149H0.327969V65.4806C0.327969 62.8102 1.32577 60.2492 3.10186 58.3609C4.87795 56.4727 7.28685 55.4119 9.79862 55.4119C12.3104 55.4119 14.7193 56.4727 16.4954 58.3609C18.2715 60.2492 19.2693 62.8102 19.2693 65.4806V70.5149ZM54.7842 45.3433C54.7842 47.346 54.0359 49.2668 52.7038 50.683C51.3717 52.0991 49.565 52.8947 47.6812 52.8947C45.7974 52.8947 43.9907 52.0991 42.6586 50.683C41.3266 49.2668 40.5782 47.346 40.5782 45.3433C40.5782 43.3405 41.3266 41.4197 42.6586 40.0035C43.9907 38.5874 45.7974 37.7918 47.6812 37.7918C49.565 37.7918 51.3717 38.5874 52.7038 40.0035C54.0359 41.4197 54.7842 43.3405 54.7842 45.3433ZM57.1519 70.5149H38.2106V65.4806C38.2106 62.8102 39.2084 60.2492 40.9845 58.3609C42.7606 56.4727 45.1694 55.4119 47.6812 55.4119C50.193 55.4119 52.6019 56.4727 54.378 58.3609C56.1541 60.2492 57.1519 62.8102 57.1519 65.4806V70.5149ZM47.6812 0.0343246H19.2693C18.0134 0.0343246 16.8089 0.564725 15.9209 1.50884C15.0328 2.45296 14.5339 3.73346 14.5339 5.06865V25.2059C14.5339 26.5411 15.0328 27.8216 15.9209 28.7658C16.8089 29.7099 18.0134 30.2403 19.2693 30.2403H24.0046V40.3089L35.8429 30.2403H47.6812C48.9371 30.2403 50.1416 29.7099 51.0296 28.7658C51.9176 27.8216 52.4165 26.5411 52.4165 25.2059V5.06865C52.4165 3.73346 51.9176 2.45296 51.0296 1.50884C50.1416 0.564725 48.9371 0.0343246 47.6812 0.0343246ZM22.8208 18.913C21.8785 18.9127 20.975 18.5145 20.309 17.8059C19.643 17.0973 19.269 16.1365 19.2693 15.1348C19.2696 14.1331 19.6442 13.1725 20.3107 12.4644C20.9771 11.7563 21.8809 11.3587 22.8231 11.359C23.7654 11.3594 24.6689 11.7576 25.3349 12.4662C26.0009 13.1747 26.3749 14.1356 26.3746 15.1373C26.3743 16.139 25.9997 17.0996 25.3332 17.8077C24.6668 18.5158 23.763 18.9134 22.8208 18.913ZM33.4752 18.913C33.0087 18.9129 32.5468 18.815 32.1158 18.6251C31.6848 18.4351 31.2933 18.1567 30.9635 17.8059C30.6337 17.4551 30.3721 17.0386 30.1937 16.5803C30.0153 16.122 29.9236 15.6308 29.9237 15.1348C29.9239 14.6388 30.016 14.1477 30.1946 13.6895C30.3733 13.2313 30.6351 12.815 30.9651 12.4644C31.2951 12.1138 31.6869 11.8357 32.118 11.6461C32.5491 11.4564 33.0111 11.3589 33.4776 11.359C34.4198 11.3594 35.3233 11.7576 35.9894 12.4662C36.6554 13.1747 37.0294 14.1356 37.0291 15.1373C37.0288 16.139 36.6542 17.0996 35.9877 17.8077C35.3212 18.5158 34.4175 18.9134 33.4752 18.913ZM44.1297 18.913C43.6632 18.9129 43.2012 18.815 42.7703 18.6251C42.3393 18.4351 41.9477 18.1567 41.6179 17.8059C41.2882 17.4551 41.0266 17.0386 40.8482 16.5803C40.6698 16.122 40.5781 15.6308 40.5782 15.1348C40.5784 14.6388 40.6704 14.1477 40.8491 13.6895C41.0278 13.2313 41.2896 12.815 41.6196 12.4644C41.9496 12.1138 42.3414 11.8357 42.7725 11.6461C43.2035 11.4564 43.6655 11.3589 44.1321 11.359C45.0743 11.3594 45.9778 11.7576 46.6439 12.4662C47.3099 13.1747 47.6839 14.1356 47.6836 15.1373C47.6833 16.139 47.3087 17.0996 46.6422 17.8077C45.9757 18.5158 45.072 18.9134 44.1297 18.913Z"
        fill="white" />
</svg>